[gd_scene load_steps=4 format=3 uid="uid://dgnkw2hmth85c"]

[ext_resource type="Script" path="res://CharacterBody2D.cs" id="1_16i86"]
[ext_resource type="Texture2D" uid="uid://2s4sc6brg623" path="res://icon.svg" id="1_043ov"]

[sub_resource type="RectangleShape2D" id="RectangleShape2D_tbqbs"]
size = Vector2(124, 121)

[node name="Node2D" type="Node2D"]

[node name="CharacterBody2D" type="CharacterBody2D" parent="."]
floor_snap_length = 0.4
script = ExtResource("1_16i86")

[node name="CollisionShape2D" type="CollisionShape2D" parent="CharacterBody2D"]
position = Vector2(-1, -1.5)
shape = SubResource("RectangleShape2D_tbqbs")

[node name="Sprite2D" type="Sprite2D" parent="CharacterBody2D"]
texture = ExtResource("1_043ov")
